…
``` r
chrome$close()
```

## Files written

These files have been written to the target directory, `data/00-import`:

``` r
projthis::proj_dir_info(path_target()) %>% 
  arrange(desc(modification_time)) # show most-recent first
```

    ## # A tibble: 278 x 4
    ##    path                   type         size modification_time  
    ##    <fs::path>             <fct> <fs::bytes> <dttm>             
    ##  1 access-2021-02-27.html file        5.39K 2021-02-27 17:49:47
    ##  2 access-2021-02-26.html file      489.68K 2021-02-27 16:23:59
    ##  3 access-2021-02-25.html file      489.68K 2021-02-27 16:23:59
    ##  4 access-2021-02-24.html file      489.68K 2021-02-27 16:23:59
    ##  5 access-2021-02-23.html file      489.68K 2021-02-27 16:23:59
    ##  6 access-2021-02-22.html file      491.79K 2021-02-27 16:23:59
    ##  7 access-2021-02-21.html file      491.79K 2021-02-27 16:23:59
    ##  8 access-2021-02-20.html file      491.79K 2021-02-27 16:23:59
    ##  9 access-2021-02-19.html file      491.79K 2021-02-27 16:23:59
    ## 10 access-2021-02-18.html file      494.27K 2021-02-27 16:23:59
    ## # … with 268 more rows
