…
Test some of our functions:

``` r
html <- read_html(path_source("00-import", "idph-html", "access-2020-06-22.html"))
date <- extract_date(html)
```

``` r
data <- extract_data(html, date)
print(data)
```

    ## # A tibble: 100 x 7
    ##    date        fips county      tests cases recovered deaths
    ##    <date>     <dbl> <chr>       <dbl> <dbl>     <dbl>  <dbl>
    ##  1 2020-06-22 19153 Polk        42147  5510      2669    167
    ##  2 2020-06-22 19193 Woodbury    14893  3069      2587     42
    ##  3 2020-06-22 19013 Black Hawk  13042  1896      1160     56
    ##  4 2020-06-22 19021 Buena Vista  6655  1667       476     10
    ##  5 2020-06-22 19113 Linn        16349  1097       857     80
    ##  6 2020-06-22 19049 Dallas       8207  1075       689     29
    ##  7 2020-06-22 19127 Marshall     5100   974       608     18
    ##  8 2020-06-22 19103 Johnson     11612   770       497      8
    ##  9 2020-06-22 19179 Wapello      3815   689       555     27
    ## 10 2020-06-22 19047 Crawford     2651   640       376      2
    ## # … with 90 more rows
…
    ## Warning: The `path` argument of `write_csv()` is deprecated as of readr 1.4.0.
    ## Please use the `file` argument instead.

## Files written

These files have been written to the target directory,
`data/02-scrape-idph`:

``` r
projthis::proj_dir_info(path_target()) %>% 
  arrange(desc(path)) # show most-recent first
```

    ## # A tibble: 370 x 4
    ##    path                  type         size modification_time  
    ##    <fs::path>            <fct> <fs::bytes> <dttm>             
    ##  1 access-NA.csv         file        3.42K 2021-06-06 20:32:13
    ##  2 access-2021-06-06.csv file        4.25K 2021-06-06 20:32:14
    ##  3 access-2021-06-05.csv file        4.25K 2021-06-06 20:28:13
    ##  4 access-2021-06-04.csv file        4.25K 2021-06-06 20:28:13
    ##  5 access-2021-06-02.csv file        4.25K 2021-06-06 20:32:13
    ##  6 access-2021-06-01.csv file        4.25K 2021-06-06 20:28:13
    ##  7 access-2021-05-31.csv file        4.25K 2021-06-06 20:28:13
    ##  8 access-2021-05-30.csv file        4.25K 2021-06-06 20:28:13
    ##  9 access-2021-05-29.csv file        4.25K 2021-06-06 20:28:13
    ## 10 access-2021-05-28.csv file        4.25K 2021-06-06 20:28:13
    ## # … with 360 more rows
