…
    date,
    fips,
    county,
    population,
    population_group,
    cases_total = cases, 
    cases_total_per100k = per_100k(cases_total, population),
    cases_avg_week = ((cases - dplyr::lag(cases_total, 7)) / 7) %>% round(3) ,
    cases_avg_week_per100k = per_100k(cases_avg_week, population),
    cases_week_growth = growth(cases_avg_week)
  ) %>%
  print()  
```

    ## # A tibble: 34,855 x 10
    ## # Groups:   county [99]
    ##    date        fips county        population population_group cases_total
    ##    <date>     <dbl> <chr>              <dbl> <chr>                  <dbl>
    ##  1 2020-05-25 19153 Polk              490161 large                   3774
    ##  2 2020-05-25 19113 Linn              226706 large                    935
    ##  3 2020-05-25 19163 Scott             172943 mid-large                337
    ##  4 2020-05-25 19103 Johnson           151140 mid-large                602
    ##  5 2020-05-25 19013 Black Hawk        131228 mid-large               1682
    ##  6 2020-05-25 19193 Woodbury          103107 mid-large               2624
    ##  7 2020-05-25 19061 Dubuque            97311 mid-large                323
    ##  8 2020-05-25 19169 Story              97117 mid-large                 95
    ##  9 2020-05-25 19049 Dallas             93453 mid-large                857
    ## 10 2020-05-25 19155 Pottawattamie      93206 mid-large                212
    ## # … with 34,845 more rows, and 4 more variables: cases_total_per100k <dbl>,
    ## #   cases_avg_week <dbl>, cases_avg_week_per100k <dbl>, cases_week_growth <dbl>
…
